module modernc.org/gc/v2

go 1.21

require (
	github.com/dustin/go-humanize v1.0.1
	github.com/pmezard/go-difflib v1.0.0
	modernc.org/scannertest v1.0.2
	modernc.org/token v1.1.0
)

require (
	golang.org/x/exp v0.0.0-20181106170214-d68db9428509 // indirect
	modernc.org/fileutil v1.1.2 // indirect
	modernc.org/lex v1.1.1 // indirect
	modernc.org/lexer v1.0.4 // indirect
)
